{
	"device": {
		"name": "Dev5",
		"precision": "10.0",
		"owner": "JohnDoe",
		"institution": "SRIPAS",
		"functions": ["openCloseFunction","actuatingFunction"]
	}
	"device": {
		"name": "Dev6",
		"precision": "5.0",
		"owner": "MariaGratia",
		"institution": "SRIPAS",
		"functions": ["openCloseFunction","tagFunction"]
	}
}